{
  "welcome" : {
    "id" : "welcome",
    "button_text" : "Next",
    "page_path" : "pages/default/welcome.php",
    "disabled" : false,
    "start_page" : true
  },
  "terms" : {
    "id" : "terms",
    "button_text" : "Next",
    "page_path" : "pages/custom/terms.php",
    "disabled" : false,
    "start_page" : false
  },
  "conditions_participation" : {
    "id" : "conditions_participation",
    "button_text" : "Next",
    "page_path" : "pages/custom/conditions_participation.php",
    "disabled" : true,
    "start_page" : false
  },
  "consent" : {
    "id" : "consent",
    "button_text" : "Next",
    "page_path" : "pages/default/consent.php",
    "disabled" : true,
    "start_page" : false
  },
  "q_household_profile" : {
    "id" : "q_household_profile",
    "button_text" : "Next",
    "page_path" : "pages/custom/q_household_profile.php",
    "disabled" : true,
    "start_page" : false
  },
  "q_strategies" : {
    "id" : "q_strategies",
    "button_text" : "Next",
    "page_path" : "pages/custom/q_strategies.php",
    "disabled" : false,
    "start_page" : false
  },
  "q_conflicts" : {
    "id" : "q_conflicts",
    "button_text" : "Next",
    "page_path" : "pages/custom/q_conflicts.php",
    "disabled" : false,
    "start_page" : false
  },
  "feedback" : {
    "id" : "feedback",
    "button_text" : "Finish",
    "page_path" : "pages/default/feedback.php",
    "disabled" : false,
    "start_page" : false,
    "save_page" : true
  },
  "end" : {
    "id" : "end",
    "button_text" : " ",
    "page_path" : "pages/default/end.php",
    "disabled" : true,
    "start_page" : false
  }
}